<?xml version="1.0" encoding="utf-8"?>
<!-- Generator: Adobe Illustrator 22.0.1, SVG Export Plug-In . SVG Version: 6.00 Build 0)  -->
<svg version="1.1" id="side_2" xmlns="http://www.w3.org/2000/svg" xmlns:xlink="http://www.w3.org/1999/xlink" x="0px" y="0px"
	 viewBox="0 0 495 462" style="enable-background:new 0 0 495 462;" xml:space="preserve">
<style type="text/css">
	.st0{fill:#BBDED6;}
	.st1{fill:#60C0BF;}
	.st2{fill:#D9AF4E;}
	.st3{fill:#D25352;}
	.st4{fill:#F5CAC4;}
	.st5{fill:#FFFFFF;}
	.st6{fill:#00C857;}
	.st7{fill:none;stroke:#D25352;stroke-width:3;}
</style>
<title>Artboard 1</title>
<path class="st0" d="M405.4,251.7h21.8c4.8,0,8.7-3.9,8.8-8.7c0-5.7-4.6-10.3-10.2-10.3h-70.7l-219.2,1.4l0.2,58.3
	c0,19.9,16.2,35.4,36,35.4l182.8-0.1c5.7,0,9.8-2.4,9.8-8.1v-1.5c0.2-5.3-3.9-9.9-9.3-10.1c-0.2,0-0.4,0-0.5,0l-64,0.5
	c-1.3,0-2.5-0.5-3.4-1.4c-0.9-0.9-1.4-3.2-1.4-4.5c0-2.1,1.7-4.9,3.8-4.9h184.2c8.8,0,16-7.2,16-16c0-7.7-6.3-14-14-14h-72
	c-2,0-3.9,0.3-5.3-1.1c-1.4-1.6-2.1-3.7-2.1-5.9C396.8,256,400.7,251.7,405.4,251.7z"/>
<path class="st1" d="M264.4,370.1c-1.1,1.1-2.1,0.6-3.7,0.6h-93.4c-6.7,0-12.2,5.5-12.2,12.2c0,6.5,5.3,11.8,11.8,11.8h156.3
	c7.7,0,13.4-4,13.4-11.8v-1.4c0.1-6.3-4.9-11.6-11.3-11.7h-0.1H323c-2.4,0-4.4-1.9-4.4-4.3v-0.1c0.1-2.2,1.9-3.9,4.1-3.9l53.4-0.5
	c5.4,0,9.9-5.6,9.9-11c0-5.6-4.5-11.3-10.1-11.3h-160c-5.4,0-9.7,5.5-9.7,10.8c0,2.9,1.1,5.7,3,7.8c1.8,2,4.3,3.2,7,3.3l43.8,0.3
	c3.4,0,5.6,2.7,5.6,6.1C265.8,368.2,265.3,369.4,264.4,370.1z"/>
<g id="Group-7">
	<g>
		<path class="st0" d="M-28.2,322.7h-41c-7.3,0-13.1,8.6-13.1,15.8v12.2c0,6.7-5,10-11.7,10h-30.5c-8,0-14.5,6.5-14.5,14.5
			c0,7.4,6,13.5,13.5,13.5h43.3c7,0,12.7,5.7,12.7,12.7c0,7.4-6,13.3-13.3,13.3h-104.8c-8,0-14.9,8.7-14.9,16.6v0.9
			c0.1,3.9,1.8,7.7,4.6,10.4c2.9,2.8,6.7,4.3,10.7,4.3h48.7c2.1,0,4,0.8,5.4,2.2c1.4,1.5,2.2,3.4,2.2,5.4c0,1.9-0.8,3.7-2.1,5
			c-1.4,1.4-3.2,2.1-5.1,2.1l-23.4-0.1c-3.4-0.1-6.6,1.3-9,3.6c-2.4,2.3-3.8,5.5-3.9,8.8v0.9c0,2.6,1.3,4.1,3.2,6
			c1.9,1.9,4.7,1.9,7.4,1.9h63.4l-31.9-0.1h34.7c6.5,0,11.7-4.2,11.7-10.7c0-7.1,5.7-11.7,12.7-11.7L7,459.8h0.1
			c7.6-0.1,13.7-6.4,13.6-14v-1.9c0-7.9-5.9-16.4-13.7-16.4h-30.1c-3.3,0-6.4-0.2-8.6-2.5c-2.2-2.3-3.4-4.4-3.3-7.6l0.1-11.9
			c0-8.2,6.7-14.8,14.9-14.8l114.3,0.1c0.2,0,0.3,0,0.5,0c7.3-0.2,13-6.3,12.8-13.6v-0.7c0-7.6-5.6-15.9-13.2-15.9h-99
			c-6.8,0-12.8-3.3-12.8-10.1v-14.3C-17.4,330.2-22.2,322.7-28.2,322.7z"/>
	</g>
</g>
<path class="st2" d="M349.4,132.4c-4.1-17.7-15.1-53.7-60-53.7c-3.9,0-7.8,0.4-11.7,1c32.4,4.7,42.7,33.2,49.8,63.9
	C334.5,139.8,341.8,136,349.4,132.4z"/>
<g id="Group-12">
	<g>
		<path class="st2" d="M494.1,217.1c0.1-3.2,0.2-6.5,0.2-9.8c0-52.2-15.3-96.6-67.4-96.7c-1.1,0-2.3,0.1-3.5,0.1
			c38.2,11.8,41.3,64.2,42.1,106.4H494.1z"/>
	</g>
</g>
<path class="st3" d="M423.4,110.7c-23.6,0.9-49.9,10.3-73.9,21.7c-7.6,3.6-15,7.4-21.9,11.2c-7.1-30.7-17.4-59.2-49.8-63.9
	c-51.4,9.2-69.8,79.2-72.5,137.4h260.2C464.6,174.9,461.6,122.5,423.4,110.7z"/>
<path class="st4" d="M200.7,121c6.9,14.6,13.3,27.5,21.9,35.5c47.2,44,109.2,6.4,115.1,103.5h33.7c-0.4-115.6-66.1-72.1-115.6-118.2
	c-32.2-30.1-33.5-127.3-142.9-131C162.1,26.7,168.2,64.1,200.7,121z"/>
<path class="st5" d="M253.9,260h83.7c-5.9-97.1-67.9-59.5-115.1-103.5c-8.6-8.1-15-20.9-21.9-35.5C168.1,64.1,162,26.7,112.8,10.8
	c-2.1-0.1-4.3-0.1-6.5-0.1c-21.6-0.1-43.1,4.2-63.1,12.4c-6.8,12.9-11.8,26-11.8,41.1c0,37.4,30.4,58.5,62.3,58.5
	c5,0,9.9-0.5,14.8-1.5c-0.4,4-0.7,8-0.8,11.9C107.7,212.2,208.5,202.1,253.9,260z"/>
<path class="st2" d="M-128.6,260h382.7c-45.5-57.8-146.3-47.7-146.1-126.8c0-4,0.2-8,0.7-12c-4.9,1-9.8,1.5-14.8,1.5
	c-32,0-62.3-21.2-62.3-58.5c0-15.1,5-28.2,11.8-41.1C-43,58.5-98.6,163.7-128.6,260z"/>
<polygon class="st1" points="97.8,172.7 97.6,172.9 69.4,347.3 189.5,347.3 "/>
<polygon class="st6" points="97.6,172.9 97.8,172.7 97.7,172.4 "/>
<polygon class="st0" points="43,233.9 71.1,337 97.6,173 "/>
<polygon class="st3" points="69.5,346.7 74,346.7 71,335.9 "/>
<path class="st3" d="M69.4,346.8l1.7-10.1L43,233.9l-9-33.3c-3.8-5.6-7-12.1-14.5-12.1c-13.1,0-13.1,20-26.3,20s-13.1-20-26.3-20
	s-13.1,20-26.3,20c-13.2,0-13.1-20-26.3-20c-13.2,0-13.1,20-26.3,20c-1.3-0.1-2.5-0.4-3.7-0.9l-34.9,139.2H69.4z"/>
<path class="st1" d="M-85.7,188.5c13.2,0,13.1,20,26.3,20c13.2,0,13.1-20,26.3-20s13.1,20,26.3,20s13.2-20,26.3-20
	c7.5,0,10.7,6.5,14.5,12.1L-43-82.1l-72.7,290c1.2,0.4,2.4,0.6,3.7,0.6C-98.8,208.5-98.9,188.5-85.7,188.5z"/>
<path class="st5" d="M47.4,390.7c2.1-6,7.7-9.7,3.6-28.1c-1.6,0.8-3.3,1.2-5,2c3.5,15.9-2.7,18.1-4.6,26.1H47.4z"/>
<path id="Stroke-39" class="st7" d="M81.3,313.1c1.2-5.4,0.7-10.9-1.4-16c-0.5-1.5-1.1-2.9-1.7-4.5c-7.6-20.9,2.8-27.2-2.2-40.9
	c-1.2-3.2-2.9-6.2-4.9-8.9"/>
<path id="Stroke-41" class="st7" d="M84.7,311.9c2.1-7.2-0.1-16,2.7-22.6c6.8-15.9,21.6-8.9,18-37.5"/>
<path class="st4" d="M-68.2,360.9c15.6,11.6,34.9,21.1,56.2,21.5c9,0.1,18-1.4,26.5-4.5c8.8-3.2,16.8-6.2,24.1-9.2
	c-0.3-1.4-0.7-2.8-1.2-4.2c-0.7-1.9-1.8-3.6-3.2-5c-10-11-37.9-20-66.8-26.7c-4.7-1.1-9.3-2.1-14-3c-4.2-0.9-8.3-1.7-12.3-2.4
	l-4.3-0.8c-18.5-3.4-34.7-5.7-43.5-6.9c0.7,1.4,1.6,2.8,2.5,4.1c4.5,6.5,9.6,12.7,15.1,18.4C-82.7,349-75.7,355.2-68.2,360.9z"/>
<path class="st5" d="M27.1,324.5C15.9,326.6,4,328.1-8,329.6c-8.2,1-16.4,2-24.5,3.2c29,6.7,56.9,15.7,66.9,26.7
	C31,348.1,28.5,336.4,27.1,324.5z"/>
<path class="st4" d="M72.2,350.1c8.1-7,13.1-15.3,14.7-26.2c-1.3,1-2.7,1.8-4.2,2.3c-4.7,1.7-9.1,0.3-11-4.8
	c-0.4-1.2-0.7-2.4-0.8-3.7c-0.2,0.1-0.5,0.2-0.7,0.3c-4.3,1.7-9.2-0.4-11-4.6c-1.1,0.7-2.1,1.3-3.2,1.9c0,6.5,1.1,12.9,3.3,19
	c2.4,6.5,5.9,12.5,10.4,17.8C70.6,351.4,71.4,350.7,72.2,350.1z"/>
<path class="st5" d="M70.2,317.9c0.2-0.1,0.5-0.2,0.7-0.3c0.1,1.3,0.4,2.5,0.8,3.7c1.8,5.1,6.3,6.5,11,4.8c1.5-0.6,2.9-1.3,4.2-2.3
	c0.7-5.2,0.7-10.4,0.1-15.5c-4.9-3.9-10-3.8-15.1-1.9c-4.3,1.6-8.6,4.3-12.7,6.9C61,317.5,65.9,319.6,70.2,317.9z"/>
<path class="st2" d="M38.6,368.7c2.5-1.1,5-2.1,7.3-3.2c1.7-0.8,3.4-1.5,5-2.3c5.5-2.6,10.9-5.6,15.9-9c1-0.7,1.9-1.4,2.9-2.1
	c-4.5-5.3-8-11.3-10.4-17.8c-2.2-6.1-3.4-12.5-3.3-19c-2.1,1.3-4.2,2.3-6.5,3.2c-7.4,2.6-14.9,4.6-22.6,6c1.5,11.9,3.9,23.6,7.3,35
	c1.4,1.4,2.4,3.1,3.2,5C37.9,365.9,38.3,367.3,38.6,368.7z"/>
<path class="st5" d="M96.7,377.7h6.6c-12.7-26-24.4-16.4-31.1-28.1c-0.8,0.7-1.6,1.5-2.4,2.2s-1,0.6-2,1.3
	C81,369.7,87.2,355.7,96.7,377.7z"/>
</svg>
